Jean Rousseau
1001 15.50
Steve Woolston
1002 1423.20
Michele Rousseau
1005 52.75
Pete McBride
1007 500.32
Florence Rousseanu
1010 1323.338
Lisa Covi
1009 332.356
Don McBride
1003 12.32
Chris Carroll
1008 32.356
Yolanda Agredano
1004 356.00
Sally Sleeper
1006 32.362